R và đồ thị
…
    Sắp xếp lại dữ liệu

nhietdo_2019_new <- pivot_longer(nhietdo_2019, 2:13, names_to = "Thang", values_to = "Nhiet_do")
    nhietdo_2019_new$Thang <- as.numeric(nhietdo_2019_new$Thang)

filter(nhietdo_2019_new, Thang >= 6)

## # A tibble: 105 x 3
    ##    Tinh     Thang Nhiet_do
    ##    <chr>    <dbl>    <dbl>
    ##  1 Lai Châu     6     24.2
    ##  2 Lai Châu     7     23.6
    ##  3 Lai Châu     8     24.6
    ##  4 Lai Châu     9     22.7
    ##  5 Lai Châu    10     21  
    ##  6 Lai Châu    11     18.6
    ##  7 Lai Châu    12     14.2
    ##  8 Son La       6     26.8
    ##  9 Son La       7     25.9
    ## 10 Son La       8     25.6
    ## # ... with 95 more rows
…
